﻿{
	"CFBundleName": "Reusable Variables",
	"CFBundleShortVersionString": "19.1.2 (4D v19r7)",
	"CFBundleGetInfoString": "Reusable Variables 19.1.2 (4D v19r7), 2023-03-02",
	"NSHumanReadableCopyright": "©2004-2023, Mac to Basics"
}